Concatenation · VfldFiles
…
Edit on GitHub
Concatenation
To vertically concatenated dataframes use 

vfld_df = read_v(vfldfile, select=[:ID,:TT])
vobs_df = read_v(vobsfile, select=[:ID,:TT])

df = vcat(vfld_df,vobs_df,cols=:union)

6695×7 DataFrame
 validtime        leadtime  basetime         mbr      exp        ID     TT
 DateTime         Hour      DateTime         String?  String     Int64  Float64?
─────────────────────────────────────────────────────────────────────────────────
 2019-02-18T03:…  27 hours  2019-02-17T00:…  mbr000   MEPS_prod   1001   271.224
 2019-02-18T03:…  27 hours  2019-02-17T00:…  mbr000   MEPS_prod   1010   273.376
 2019-02-18T03:…  27 hours  2019-02-17T00:…  mbr000   MEPS_prod   1014   269.436
 2019-02-18T03:…  27 hours  2019-02-17T00:…  mbr000   MEPS_prod   1015   272.521
 2019-02-18T03:…  27 hours  2019-02-17T00:…  mbr000   MEPS_prod   1018   270.954
 2019-02-18T03:…  27 hours  2019-02-17T00:…  mbr000   MEPS_prod   1021   269.733
        ⋮            ⋮             ⋮            ⋮         ⋮        ⋮       ⋮
 2019-02-20T15:…  missing   missing          missing  obs        98746   300.2
 2019-02-20T15:…  missing   missing          missing  obs        98752   296.2
 2019-02-20T15:…  missing   missing          missing  obs        98753   299.0
 2019-02-20T15:…  missing   missing          missing  obs        98755   299.2
 2019-02-20T15:…  missing   missing          missing  obs        98836   298.0
 2019-02-20T15:…  missing   missing          missing  obs        98851   300.3
                                                                6683 rows omitted
…
