Reading · VfldFiles
…
Edit on GitHub
Reading
Single file
To read a single vobs or  vfld file 

using VfldFiles, Glob

vfldfile = "assets/vfldMEPS_prodmbr000201902170027"

@show basename(vfldfile)

df = read_v(vfldfile, select=[:ID,:TT])

basename(vfldfile) = "vfldMEPS_prodmbr000201902170027"
1203×7 DataFrame
 validtime        leadtime  basetime         mbr     exp        ID     TT
 DateTime         Hour      DateTime         String  String     Int64  Float64
───────────────────────────────────────────────────────────────────────────────
 2019-02-18T03:…  27 hours  2019-02-17T00:…  mbr000  MEPS_prod   1001  271.224
 2019-02-18T03:…  27 hours  2019-02-17T00:…  mbr000  MEPS_prod   1010  273.376
 2019-02-18T03:…  27 hours  2019-02-17T00:…  mbr000  MEPS_prod   1014  269.436
 2019-02-18T03:…  27 hours  2019-02-17T00:…  mbr000  MEPS_prod   1015  272.521
 2019-02-18T03:…  27 hours  2019-02-17T00:…  mbr000  MEPS_prod   1018  270.954
 2019-02-18T03:…  27 hours  2019-02-17T00:…  mbr000  MEPS_prod   1021  269.733
        ⋮            ⋮             ⋮           ⋮         ⋮        ⋮       ⋮
 2019-02-18T03:…  27 hours  2019-02-17T00:…  mbr000  MEPS_prod  26976  269.306
 2019-02-18T03:…  27 hours  2019-02-17T00:…  mbr000  MEPS_prod  27008  266.74
 2019-02-18T03:…  27 hours  2019-02-17T00:…  mbr000  MEPS_prod  33038  270.614
 2019-02-18T03:…  27 hours  2019-02-17T00:…  mbr000  MEPS_prod  33041  270.08
 2019-02-18T03:…  27 hours  2019-02-17T00:…  mbr000  MEPS_prod  99020  268.345
 2019-02-18T03:…  27 hours  2019-02-17T00:…  mbr000  MEPS_prod  99090  279.549
                                                              1191 rows omitted
Multiple files reduce vcat
Or use reduce  and vcat to vertically concatenate dataframes.  Note in  read_v. the . will broadcast the read_v function over the vfldfiles array

df = reduce(vcat, read_v.([vfldfile vfldfile],select=[:ID,:TT]))

2406×7 DataFrame
 validtime        leadtime  basetime         mbr     exp        ID     TT
 DateTime         Hour      DateTime         String  String     Int64  Float64
───────────────────────────────────────────────────────────────────────────────
 2019-02-18T03:…  27 hours  2019-02-17T00:…  mbr000  MEPS_prod   1001  271.224
 2019-02-18T03:…  27 hours  2019-02-17T00:…  mbr000  MEPS_prod   1010  273.376
 2019-02-18T03:…  27 hours  2019-02-17T00:…  mbr000  MEPS_prod   1014  269.436
 2019-02-18T03:…  27 hours  2019-02-17T00:…  mbr000  MEPS_prod   1015  272.521
 2019-02-18T03:…  27 hours  2019-02-17T00:…  mbr000  MEPS_prod   1018  270.954
 2019-02-18T03:…  27 hours  2019-02-17T00:…  mbr000  MEPS_prod   1021  269.733
        ⋮            ⋮             ⋮           ⋮         ⋮        ⋮       ⋮
 2019-02-18T03:…  27 hours  2019-02-17T00:…  mbr000  MEPS_prod  26976  269.306
 2019-02-18T03:…  27 hours  2019-02-17T00:…  mbr000  MEPS_prod  27008  266.74
 2019-02-18T03:…  27 hours  2019-02-17T00:…  mbr000  MEPS_prod  33038  270.614
 2019-02-18T03:…  27 hours  2019-02-17T00:…  mbr000  MEPS_prod  33041  270.08
 2019-02-18T03:…  27 hours  2019-02-17T00:…  mbr000  MEPS_prod  99020  268.345
 2019-02-18T03:…  27 hours  2019-02-17T00:…  mbr000  MEPS_prod  99090  279.549
                                                              2394 rows omitted
…
